{
    "items": [
      {
      "name": "personname",
      "label": "Person's Name",
      "type": "TextField"
      },
      {
      "name": "states",
      "label": "Person's state",
      "type": "DropDown",
      "values": [
      "Maharashtra",
      "Kerala",
      "Tamil Nadu"
      ]
      }
    ]
  }